{
  "name": "net-worthier",
  "set": "local",
  "source": "https://github.com/purescript/package-sets.git",
  "depends": [
          "console"
        , "debug"
        , "dotenv"
        , "effect"
        , "express"
        , "foreign-generic"
        , "node-fs-aff"
        , "psci-support"
        , "pux"
        , "webdriver"
  ]
}
